^C:\SOLUTIONS\CUDA\CUDASIFT\CUDASIFT\X64\DEBUG\ABSTRACTS.XDC|C:\SOLUTIONS\CUDA\CUDASIFT\CUDASIFT\X64\DEBUG\DETECTOR.XDC|C:\SOLUTIONS\CUDA\CUDASIFT\CUDASIFT\X64\DEBUG\GAUSSIAN_FILTER.XDC|C:\SOLUTIONS\CUDA\CUDASIFT\CUDASIFT\X64\DEBUG\IMAGE_TYPES.XDC|C:\SOLUTIONS\CUDA\CUDASIFT\CUDASIFT\X64\DEBUG\JPEG.XDC|C:\SOLUTIONS\CUDA\CUDASIFT\CUDASIFT\X64\DEBUG\MAIN.XDC|C:\SOLUTIONS\CUDA\CUDASIFT\CUDASIFT\X64\DEBUG\MISC.XDC|C:\SOLUTIONS\CUDA\CUDASIFT\CUDASIFT\X64\DEBUG\SCALE_SPACE.XDC
C:\WINDOWS\MICROSOFT.NET\FRAMEWORK64\V2.0.50727\MSCORWKS.DLL
C:\WINDOWS\MICROSOFT.NET\FRAMEWORK64\V4.0.30319\CLR.DLL
C:\PROGRAM FILES (X86)\MICROSOFT VISUAL STUDIO 11.0\VC\BIN\XDCMAKE.EXE.CONFIG
C:\WINDOWS\MICROSOFT.NET\FRAMEWORK64\V4.0.30319\CONFIG\MACHINE.CONFIG
C:\WINDOWS\MICROSOFT.NET\FRAMEWORK64\V4.0.30319\NGEN.LOG
C:\WINDOWS\GLOBALIZATION\SORTING\SORTDEFAULT.NLS
C:\WINDOWS\ASSEMBLY\NATIVEIMAGES_V4.0.30319_64\MSCORLIB\D42C334CB5F55ECE9DE045701A3CF37F\MSCORLIB.NI.DLL.AUX
C:\PROGRAM FILES (X86)\MICROSOFT VISUAL STUDIO 11.0\VC\BIN\XDCMAKE.EXE
C:\WINDOWS\ASSEMBLY\PUBPOL80.DAT
C:\WINDOWS\ASSEMBLY\NATIVEIMAGES_V4.0.30319_64\SYSTEM\6BBDA9BE07D416E24F9D7DBC0E0ABD7A\SYSTEM.NI.DLL.AUX
C:\WINDOWS\ASSEMBLY\NATIVEIMAGES_V4.0.30319_64\SYSTEM.XML\C9AD93CBED0E929D000366C9CE23EAF3\SYSTEM.XML.NI.DLL.AUX
C:\WINDOWS\MICROSOFT.NET\FRAMEWORK64\V4.0.30319\SORTDEFAULT.NLP
C:\SOLUTIONS\CUDA\CUDASIFT\CUDASIFT\X64\DEBUG\GAUSSIAN_FILTER.XDC
C:\SOLUTIONS\CUDA\CUDASIFT\CUDASIFT\X64\DEBUG\MAIN.XDC
C:\SOLUTIONS\CUDA\CUDASIFT\CUDASIFT\X64\DEBUG\DETECTOR.XDC
C:\SOLUTIONS\CUDA\CUDASIFT\CUDASIFT\X64\DEBUG\MISC.XDC
C:\SOLUTIONS\CUDA\CUDASIFT\CUDASIFT\X64\DEBUG\JPEG.XDC
C:\SOLUTIONS\CUDA\CUDASIFT\CUDASIFT\X64\DEBUG\IMAGE_TYPES.XDC
C:\SOLUTIONS\CUDA\CUDASIFT\CUDASIFT\X64\DEBUG\ABSTRACTS.XDC
C:\SOLUTIONS\CUDA\CUDASIFT\CUDASIFT\X64\DEBUG\SCALE_SPACE.XDC
